{
  "name": "Contacto",
  "options": {
    "idInjection": false,
    "mysql": {
      "schema": "ciscontact",
      "table": "contacto"
    },
    "relations": {
      "contactoEmpresarel": {
        "model": "Empresa",
        "type": "belongsTo",
        "foreignKey": "empresaCodigo"
      }
    }
  },
  "properties": {
    "codigo": {
      "type": "Number",
      "id": 1,
      "required": true,
      "length": null,
      "precision": 10,
      "scale": 0,
      "mysql": {
        "columnName": "codigo",
        "dataType": "int",
        "dataLength": null,
        "dataPrecision": 10,
        "dataScale": 0,
        "nullable": "N"
      }
    },
    "nombreContacto": {
      "type": "String",
      "required": true,
      "length": 256,
      "precision": null,
      "scale": null,
      "mysql": {
        "columnName": "nombre_contacto",
        "dataType": "varchar",
        "dataLength": 256,
        "dataPrecision": null,
        "dataScale": null,
        "nullable": "N"
      }
    },
    "telefono": {
      "type": "String",
      "required": true,
      "length": 11,
      "precision": null,
      "scale": null,
      "mysql": {
        "columnName": "telefono",
        "dataType": "varchar",
        "dataLength": 11,
        "dataPrecision": null,
        "dataScale": null,
        "nullable": "N"
      }
    },
    "cargo": {
      "type": "String",
      "required": false,
      "length": 256,
      "precision": null,
      "scale": null,
      "mysql": {
        "columnName": "cargo",
        "dataType": "varchar",
        "dataLength": 256,
        "dataPrecision": null,
        "dataScale": null,
        "nullable": "Y"
      }
    },
    "empresaCodigo": {
      "type": "Number",
      "required": true,
      "length": null,
      "precision": 10,
      "scale": 0,
      "mysql": {
        "columnName": "empresa_codigo",
        "dataType": "int",
        "dataLength": null,
        "dataPrecision": 10,
        "dataScale": 0,
        "nullable": "N"
      }
    },
    "nota": {
      "type": "String",
      "required": true,
      "length": 4064,
      "precision": null,
      "scale": null,
      "mysql": {
        "columnName": "nota",
        "dataType": "varchar",
        "dataLength": 4064,
        "dataPrecision": null,
        "dataScale": null,
        "nullable": "N"
      }
    }
  },
  "validations": [],
  "relations": {},
  "acls": [],
  "methods": {}
}
